HW10
…
d

# A tibble: 2,102 × 6
   attend polviews cappun degree                   weekly conservative
    <dbl>    <dbl>  <int> <fct>                     <int>        <int>
 1      5        2      1 associate/junior college      0            1
 2      2        1      1 bachelor's                    0            1
 3      6        0      0 bachelor's                    0            0
 4      8        3      0 graduate                      1            1
 5      4       -1      1 bachelor's                    0            0
 6      7        0      1 high school                   1            0
 7      7        1      1 high school                   1            1
 8      0        0      1 less than high school         0            0
 9      4        2      1 graduate                      0            1
10      5        0      1 high school                   0            0
# ℹ 2,092 more rows
…
