HW6
…
In the third graph is percentages representing the polview variable for each attend level. Here, we can see that people are generally moderate, but if they tend to never go to church they are more likely to be strong liberals, and if they tend to go to church a lot, they tend to be stronger conservative.

6.2.5

d |> 
  mutate(polviews = as_factor(polviews), attend = as_factor(attend)) |> 
  specify(response = polviews, explanatory = attend) |> 
  hypothesize(null = "independence") |> 
  generate(reps = 1000, type = "permute") |> 
  calculate(stat = "Chisq")

Response: polviews (factor)
Explanatory: attend (factor)
Null Hypothesis: independence
# A tibble: 1,000 × 2
   replicate  stat
       <int> <dbl>
 1         1  31.1
 2         2  40.9
 3         3  41.2
 4         4  48.1
 5         5  39.5
 6         6  47.3
 7         7  52.6
 8         8  44.5
 9         9  54.9
10        10  69.1
# ℹ 990 more rows
…
