HW2
…
Had an arrival delay of two or more hours

Flew to Houston (IAH or HOU)

Were operated by United, American, or Delta

Departed in summer (July, August, and September)

Arrived more than two hours late, but didn’t leave late

Were delayed by at least an hour, but made up over 30 minutes in flight

flights |> filter(arr_delay >= 120)

# A tibble: 10,200 × 19
    year month   day dep_time sched_dep_time dep_delay arr_time sched_arr_time
   <int> <int> <int>    <int>          <int>     <dbl>    <int>          <int>
 1  2013     1     1      811            630       101     1047            830
 2  2013     1     1      848           1835       853     1001           1950
 3  2013     1     1      957            733       144     1056            853
 4  2013     1     1     1114            900       134     1447           1222
 5  2013     1     1     1505           1310       115     1638           1431
 6  2013     1     1     1525           1340       105     1831           1626
 7  2013     1     1     1549           1445        64     1912           1656
 8  2013     1     1     1558           1359       119     1718           1515
 9  2013     1     1     1732           1630        62     2028           1825
10  2013     1     1     1803           1620       103     2008           1750
# ℹ 10,190 more rows
# ℹ 11 more variables: arr_delay <dbl>, carrier <chr>, flight <int>,
#   tailnum <chr>, origin <chr>, dest <chr>, air_time <dbl>, distance <dbl>,
#   hour <dbl>, minute <dbl>, time_hour <dttm>

flights |> filter(dest %in% c("IAH", "HOU"))

# A tibble: 9,313 × 19
    year month   day dep_time sched_dep_time dep_delay arr_time sched_arr_time
   <int> <int> <int>    <int>          <int>     <dbl>    <int>          <int>
 1  2013     1     1      517            515         2      830            819
 2  2013     1     1      533            529         4      850            830
 3  2013     1     1      623            627        -4      933            932
 4  2013     1     1      728            732        -4     1041           1038
 5  2013     1     1      739            739         0     1104           1038
 6  2013     1     1      908            908         0     1228           1219
 7  2013     1     1     1028           1026         2     1350           1339
 8  2013     1     1     1044           1045        -1     1352           1351
 9  2013     1     1     1114            900       134     1447           1222
10  2013     1     1     1205           1200         5     1503           1505
# ℹ 9,303 more rows
# ℹ 11 more variables: arr_delay <dbl>, carrier <chr>, flight <int>,
#   tailnum <chr>, origin <chr>, dest <chr>, air_time <dbl>, distance <dbl>,
#   hour <dbl>, minute <dbl>, time_hour <dttm>

flights |> filter(carrier %in% c("UA", "AA", "DL"))

# A tibble: 139,504 × 19
    year month   day dep_time sched_dep_time dep_delay arr_time sched_arr_time
   <int> <int> <int>    <int>          <int>     <dbl>    <int>          <int>
 1  2013     1     1      517            515         2      830            819
 2  2013     1     1      533            529         4      850            830
 3  2013     1     1      542            540         2      923            850
 4  2013     1     1      554            600        -6      812            837
 5  2013     1     1      554            558        -4      740            728
 6  2013     1     1      558            600        -2      753            745
 7  2013     1     1      558            600        -2      924            917
 8  2013     1     1      558            600        -2      923            937
 9  2013     1     1      559            600        -1      941            910
10  2013     1     1      559            600        -1      854            902
# ℹ 139,494 more rows
# ℹ 11 more variables: arr_delay <dbl>, carrier <chr>, flight <int>,
#   tailnum <chr>, origin <chr>, dest <chr>, air_time <dbl>, distance <dbl>,
#   hour <dbl>, minute <dbl>, time_hour <dttm>

flights |> filter(month %in% c(7,8,9))

# A tibble: 86,326 × 19
    year month   day dep_time sched_dep_time dep_delay arr_time sched_arr_time
   <int> <int> <int>    <int>          <int>     <dbl>    <int>          <int>
 1  2013     7     1        1           2029       212      236           2359
 2  2013     7     1        2           2359         3      344            344
 3  2013     7     1       29           2245       104      151              1
 4  2013     7     1       43           2130       193      322             14
 5  2013     7     1       44           2150       174      300            100
 6  2013     7     1       46           2051       235      304           2358
 7  2013     7     1       48           2001       287      308           2305
 8  2013     7     1       58           2155       183      335             43
 9  2013     7     1      100           2146       194      327             30
10  2013     7     1      100           2245       135      337            135
# ℹ 86,316 more rows
# ℹ 11 more variables: arr_delay <dbl>, carrier <chr>, flight <int>,
#   tailnum <chr>, origin <chr>, dest <chr>, air_time <dbl>, distance <dbl>,
#   hour <dbl>, minute <dbl>, time_hour <dttm>

flights |> filter(dep_delay <= 0 & arr_delay >= 120)

# A tibble: 29 × 19
    year month   day dep_time sched_dep_time dep_delay arr_time sched_arr_time
   <int> <int> <int>    <int>          <int>     <dbl>    <int>          <int>
 1  2013     1    27     1419           1420        -1     1754           1550
 2  2013    10     7     1350           1350         0     1736           1526
 3  2013    10     7     1357           1359        -2     1858           1654
 4  2013    10    16      657            700        -3     1258           1056
 5  2013    11     1      658            700        -2     1329           1015
 6  2013     3    18     1844           1847        -3       39           2219
 7  2013     4    17     1635           1640        -5     2049           1845
 8  2013     4    18      558            600        -2     1149            850
 9  2013     4    18      655            700        -5     1213            950
10  2013     5    22     1827           1830        -3     2217           2010
# ℹ 19 more rows
# ℹ 11 more variables: arr_delay <dbl>, carrier <chr>, flight <int>,
#   tailnum <chr>, origin <chr>, dest <chr>, air_time <dbl>, distance <dbl>,
#   hour <dbl>, minute <dbl>, time_hour <dttm>

flights |> filter(dep_delay >= 60 & (sched_arr_time - arr_time) > 30)

# A tibble: 4,608 × 19
    year month   day dep_time sched_dep_time dep_delay arr_time sched_arr_time
   <int> <int> <int>    <int>          <int>     <dbl>    <int>          <int>
 1  2013     1     1      848           1835       853     1001           1950
 2  2013     1     1     2205           1720       285       46           2040
 3  2013     1     1     2312           2000       192       21           2110
 4  2013     1     1     2323           2200        83       22           2313
 5  2013     1     1     2343           1724       379      314           1938
 6  2013     1     2      126           2250       156      233           2359
 7  2013     1     2     2145           1925       140       54           2244
 8  2013     1     2     2225           1930       175      231           2219
 9  2013     1     2     2259           2100       119      122           2332
10  2013     1     2     2309           2200        69        5           2307
# ℹ 4,598 more rows
# ℹ 11 more variables: arr_delay <dbl>, carrier <chr>, flight <int>,
#   tailnum <chr>, origin <chr>, dest <chr>, air_time <dbl>, distance <dbl>,
#   hour <dbl>, minute <dbl>, time_hour <dttm>

Sort flights to find the flights with longest departure delays.

flights |> arrange(desc(dep_delay))

# A tibble: 336,776 × 19
    year month   day dep_time sched_dep_time dep_delay arr_time sched_arr_time
   <int> <int> <int>    <int>          <int>     <dbl>    <int>          <int>
 1  2013     1     9      641            900      1301     1242           1530
 2  2013     6    15     1432           1935      1137     1607           2120
 3  2013     1    10     1121           1635      1126     1239           1810
 4  2013     9    20     1139           1845      1014     1457           2210
 5  2013     7    22      845           1600      1005     1044           1815
 6  2013     4    10     1100           1900       960     1342           2211
 7  2013     3    17     2321            810       911      135           1020
 8  2013     6    27      959           1900       899     1236           2226
 9  2013     7    22     2257            759       898      121           1026
10  2013    12     5      756           1700       896     1058           2020
# ℹ 336,766 more rows
# ℹ 11 more variables: arr_delay <dbl>, carrier <chr>, flight <int>,
#   tailnum <chr>, origin <chr>, dest <chr>, air_time <dbl>, distance <dbl>,
#   hour <dbl>, minute <dbl>, time_hour <dttm>

Find the flights that left earliest in the morning

flights |> arrange(dep_time)

# A tibble: 336,776 × 19
    year month   day dep_time sched_dep_time dep_delay arr_time sched_arr_time
   <int> <int> <int>    <int>          <int>     <dbl>    <int>          <int>
 1  2013     1    13        1           2249        72      108           2357
 2  2013     1    31        1           2100       181      124           2225
 3  2013    11    13        1           2359         2      442            440
 4  2013    12    16        1           2359         2      447            437
 5  2013    12    20        1           2359         2      430            440
 6  2013    12    26        1           2359         2      437            440
 7  2013    12    30        1           2359         2      441            437
 8  2013     2    11        1           2100       181      111           2225
 9  2013     2    24        1           2245        76      121           2354
10  2013     3     8        1           2355         6      431            440
# ℹ 336,766 more rows
# ℹ 11 more variables: arr_delay <dbl>, carrier <chr>, flight <int>,
#   tailnum <chr>, origin <chr>, dest <chr>, air_time <dbl>, distance <dbl>,
#   hour <dbl>, minute <dbl>, time_hour <dttm>

Sort flights to find the fastest flights.

flights |> arrange(desc(distance/air_time))

# A tibble: 336,776 × 19
    year month   day dep_time sched_dep_time dep_delay arr_time sched_arr_time
   <int> <int> <int>    <int>          <int>     <dbl>    <int>          <int>
 1  2013     5    25     1709           1700         9     1923           1937
 2  2013     7     2     1558           1513        45     1745           1719
 3  2013     5    13     2040           2025        15     2225           2226
 4  2013     3    23     1914           1910         4     2045           2043
 5  2013     1    12     1559           1600        -1     1849           1917
 6  2013    11    17      650            655        -5     1059           1150
 7  2013     2    21     2355           2358        -3      412            438
 8  2013    11    17      759            800        -1     1212           1255
 9  2013    11    16     2003           1925        38       17             36
10  2013    11    16     2349           2359       -10      402            440
# ℹ 336,766 more rows
# ℹ 11 more variables: arr_delay <dbl>, carrier <chr>, flight <int>,
#   tailnum <chr>, origin <chr>, dest <chr>, air_time <dbl>, distance <dbl>,
#   hour <dbl>, minute <dbl>, time_hour <dttm>

Was there a flight on every day of 2013?

flights |> distinct(month, day)

# A tibble: 365 × 2
   month   day
   <int> <int>
 1     1     1
 2     1     2
 3     1     3
 4     1     4
 5     1     5
 6     1     6
 7     1     7
 8     1     8
 9     1     9
10     1    10
# ℹ 355 more rows

Yes, since there are 365 rows in the output above.

Which flights traveled the farthest distance? Which traveled the least distance?

flights |> arrange(desc(distance))

# A tibble: 336,776 × 19
    year month   day dep_time sched_dep_time dep_delay arr_time sched_arr_time
   <int> <int> <int>    <int>          <int>     <dbl>    <int>          <int>
 1  2013     1     1      857            900        -3     1516           1530
 2  2013     1     2      909            900         9     1525           1530
 3  2013     1     3      914            900        14     1504           1530
 4  2013     1     4      900            900         0     1516           1530
 5  2013     1     5      858            900        -2     1519           1530
 6  2013     1     6     1019            900        79     1558           1530
 7  2013     1     7     1042            900       102     1620           1530
 8  2013     1     8      901            900         1     1504           1530
 9  2013     1     9      641            900      1301     1242           1530
10  2013     1    10      859            900        -1     1449           1530
# ℹ 336,766 more rows
# ℹ 11 more variables: arr_delay <dbl>, carrier <chr>, flight <int>,
#   tailnum <chr>, origin <chr>, dest <chr>, air_time <dbl>, distance <dbl>,
#   hour <dbl>, minute <dbl>, time_hour <dttm>

flights |> arrange(distance)

# A tibble: 336,776 × 19
    year month   day dep_time sched_dep_time dep_delay arr_time sched_arr_time
   <int> <int> <int>    <int>          <int>     <dbl>    <int>          <int>
 1  2013     7    27       NA            106        NA       NA            245
 2  2013     1     3     2127           2129        -2     2222           2224
 3  2013     1     4     1240           1200        40     1333           1306
 4  2013     1     4     1829           1615       134     1937           1721
 5  2013     1     4     2128           2129        -1     2218           2224
 6  2013     1     5     1155           1200        -5     1241           1306
 7  2013     1     6     2125           2129        -4     2224           2224
 8  2013     1     7     2124           2129        -5     2212           2224
 9  2013     1     8     2127           2130        -3     2304           2225
10  2013     1     9     2126           2129        -3     2217           2224
# ℹ 336,766 more rows
# ℹ 11 more variables: arr_delay <dbl>, carrier <chr>, flight <int>,
#   tailnum <chr>, origin <chr>, dest <chr>, air_time <dbl>, distance <dbl>,
#   hour <dbl>, minute <dbl>, time_hour <dttm>
…
any_of() is a functional param for select. We can pass it that list of variables and it will get them all, so this way we can make a variable input rather than a statically-typed one.

Does the result of running the following code surprise you? How do the select helpers deal with upper and lower case by default? How can you change that default?

flights |> select(contains("TIME"))

Result is all rows with columns with name containing time, not too surprising. Case is ignored, we can pass another param to contains to strictly address case.

Rename air_time to air_time_min to indicate units of measurement and move it to the beginning of the data frame.

flights |> 
  rename(air_time_min = air_time) |> 
  relocate(air_time_min)

# A tibble: 336,776 × 19
   air_time_min  year month   day dep_time sched_dep_time dep_delay arr_time
          <dbl> <int> <int> <int>    <int>          <int>     <dbl>    <int>
 1          227  2013     1     1      517            515         2      830
 2          227  2013     1     1      533            529         4      850
 3          160  2013     1     1      542            540         2      923
 4          183  2013     1     1      544            545        -1     1004
 5          116  2013     1     1      554            600        -6      812
 6          150  2013     1     1      554            558        -4      740
 7          158  2013     1     1      555            600        -5      913
 8           53  2013     1     1      557            600        -3      709
 9          140  2013     1     1      557            600        -3      838
10          138  2013     1     1      558            600        -2      753
# ℹ 336,766 more rows
# ℹ 11 more variables: sched_arr_time <int>, arr_delay <dbl>, carrier <chr>,
#   flight <int>, tailnum <chr>, origin <chr>, dest <chr>, distance <dbl>,
#   hour <dbl>, minute <dbl>, time_hour <dttm>
…
flights |> 
  group_by(carrier, dest) |> 
  summarise(delay = mean(dep_delay, na.rm = TRUE)) |> 
  group_by(dest) |> 
  arrange(desc(delay))

`summarise()` has grouped output by 'carrier'. You can override using the
`.groups` argument.

# A tibble: 314 × 3
# Groups:   dest [105]
   carrier dest  delay
   <chr>   <chr> <dbl>
 1 UA      STL    77.5
 2 OO      ORD    67  
 3 OO      DTW    61  
 4 UA      RDU    60  
 5 EV      PBI    48.7
 6 EV      TYS    41.8
 7 EV      CAE    36.7
 8 EV      TUL    34.9
 9 9E      BGR    34  
10 WN      MSY    33.4
# ℹ 304 more rows

Not really possible to compare some airlines, because they don’t all go to the same airlines

Find the flights that are most delayed upon departure from each destination.

flights |> 
  group_by(dest) |> 
  slice_max(dep_delay) |> 
  relocate(dest, dep_delay)

# A tibble: 105 × 19
# Groups:   dest [105]
   dest  dep_delay  year month   day dep_time sched_dep_time arr_time
   <chr>     <dbl> <int> <int> <int>    <int>          <int>    <int>
 1 ABQ         142  2013    12    14     2223           2001      133
 2 ACK         219  2013     7    23     1139            800     1250
 3 ALB         323  2013     1    25      123           2000      229
 4 ANC          75  2013     8    17     1740           1625     2042
 5 ATL         898  2013     7    22     2257            759      121
 6 AUS         351  2013     7    10     2056           1505     2347
 7 AVL         222  2013     6    14     1158            816     1335
 8 BDL         252  2013     2    21     1728           1316     1839
 9 BGR         248  2013    12     1     1504           1056     1628
10 BHM         325  2013     4    10       25           1900      136
# ℹ 95 more rows
# ℹ 11 more variables: sched_arr_time <int>, arr_delay <dbl>, carrier <chr>,
#   flight <int>, tailnum <chr>, origin <chr>, air_time <dbl>, distance <dbl>,
#   hour <dbl>, minute <dbl>, time_hour <dttm>
…
