HW3
…
3.2

url <- "https://raw.githubusercontent.com/acastroaraujo/socStats/main/simulation_function_week3.R"
source(url)

sims <- simulation_votes(dem_prob_pop = 0.75, sample_size = 90, num_sims = 1e3)
sims

# A tibble: 90,000 × 5
      id vote  dem_prob_pop sample_size num_sims
   <int> <chr> <chr>        <chr>       <chr>   
 1     1 Rep   0.75         90          1000    
 2     1 Dem   0.75         90          1000    
 3     1 Dem   0.75         90          1000    
 4     1 Dem   0.75         90          1000    
 5     1 Dem   0.75         90          1000    
 6     1 Rep   0.75         90          1000    
 7     1 Rep   0.75         90          1000    
 8     1 Dem   0.75         90          1000    
 9     1 Rep   0.75         90          1000    
10     1 Dem   0.75         90          1000    
# ℹ 89,990 more rows

theme_set(theme_tufte()) 

sims <- simulation_votes(dem_prob_pop = 0.52, sample_size = 300, num_sims = 500)

results <- sims |> 
  group_by(id) |> 
  summarize(dem_prop = mean(vote == "Dem")) |> 
  mutate(winner = if_else(dem_prop > 0.5, "Dem", "Rep"))

results

# A tibble: 500 × 3
      id dem_prop winner
   <int>    <dbl> <chr> 
 1     1    0.557 Dem   
 2     2    0.507 Dem   
 3     3    0.53  Dem   
 4     4    0.533 Dem   
 5     5    0.557 Dem   
 6     6    0.54  Dem   
 7     7    0.553 Dem   
 8     8    0.487 Rep   
 9     9    0.55  Dem   
10    10    0.573 Dem   
# ℹ 490 more rows
…
